Extracting data from fotmob
…
There is one nested element in the returned data.frame for on_goal_shot. As with the nested elements returned by fotmob_get_matches_by_date, columns in nested elements have camel case names. (Here, it’s only zoomRatio.)

NOTE: The below code block depends on tidyr 1.2.0

match_shots %>%
  dplyr::select(on_goal_shot) %>%
  tidyr::unnest_wider(
    on_goal_shot
  )
#> # A tibble: 43 × 3
#>        x      y zoomRatio
#>    <dbl>  <dbl>     <dbl>
#>  1 0.839 0.323      1    
#>  2 0.778 0.323      1    
#>  3 1.32  0.0968     1    
#>  4 2     0.0158     0.112
#>  5 1.38  0.677      0.461
#>  6 1.14  0.323      1    
#>  7 1.14  0.323      1    
#>  8 0     0.0255     0.181
#>  9 1.26  0.216      1    
#> 10 0.476 0.0221     1    
#> # … with 33 more rows
…
